{"provider_id":"57370","name":"Jamarcus B MacGyver","provider_visits":18}
{"provider_id":"20120","name":"Toney A Blanda","provider_visits":24}
{"provider_id":"38946","name":"Leonor B Monahan","provider_visits":24}
{"provider_id":"77368","name":"Stanley B Cummings","provider_visits":19}
{"provider_id":"87075","name":"Cole C Reichel","provider_visits":21}
{"provider_id":"27988","name":"Brooke A Rodriguez","provider_visits":18}
{"provider_id":"9378","name":"Stephania C Kihn","provider_visits":17}
{"provider_id":"91052","name":"Jerald A Bartoletti","provider_visits":19}
{"provider_id":"10913","name":"Crystal B Jakubowski","provider_visits":25}
{"provider_id":"76928","name":"Christiana A Osinski","provider_visits":25}
{"provider_id":"94196","name":"Charity B Dibbert","provider_visits":17}
{"provider_id":"83331","name":"Cleta B Jast","provider_visits":15}
{"provider_id":"70764","name":"Ward C Johns","provider_visits":29}
{"provider_id":"77221","name":"Maybell A O'Kon","provider_visits":20}
{"provider_id":"63629","name":"Johan B West","provider_visits":28}
{"provider_id":"95159","name":"Britney B Wolf","provider_visits":23}
{"provider_id":"45887","name":"Tia C Weissnat","provider_visits":22}
{"provider_id":"58031","name":"Jarrell C Walsh","provider_visits":16}
{"provider_id":"64153","name":"Corbin A Gottlieb","provider_visits":29}
{"provider_id":"31957","name":"Kaitlyn A Mohr","provider_visits":23}
{"provider_id":"98990","name":"Santiago B Bosco","provider_visits":25}
{"provider_id":"99795","name":"Concepcion A Windler","provider_visits":21}
{"provider_id":"9853","name":"Mateo B Hahn","provider_visits":18}
{"provider_id":"26741","name":"Isai C Kuhic","provider_visits":26}
{"provider_id":"37835","name":"Olen C Reichert","provider_visits":22}
{"provider_id":"31452","name":"Felicity A Sporer","provider_visits":29}
{"provider_id":"48824","name":"Keshaun C Treutel","provider_visits":21}
{"provider_id":"37078","name":"Augusta C Bogisich","provider_visits":16}
{"provider_id":"58618","name":"Jonas A Hartmann","provider_visits":20}
{"provider_id":"47467","name":"Maximus A Koepp","provider_visits":16}
{"provider_id":"89784","name":"Morris B Kuphal","provider_visits":25}
{"provider_id":"66408","name":"Berry C Upton","provider_visits":28}
{"provider_id":"84262","name":"Henriette B Wintheiser","provider_visits":19}
{"provider_id":"8866","name":"Devin B Hirthe","provider_visits":27}
{"provider_id":"65513","name":"Emmet A Lockman","provider_visits":16}
{"provider_id":"65897","name":"Shanny C Satterfield","provider_visits":18}
{"provider_id":"84235","name":"Jorge C Kutch","provider_visits":30}
{"provider_id":"59373","name":"Clara C Thompson","provider_visits":27}
{"provider_id":"81661","name":"Marcos A Mante","provider_visits":15}
{"provider_id":"46951","name":"Kristy C Witting","provider_visits":15}
{"provider_id":"7334","name":"Santos A Mayert","provider_visits":28}
{"provider_id":"3361","name":"Noel B Sauer","provider_visits":30}
{"provider_id":"69499","name":"Odie B Harber","provider_visits":30}
{"provider_id":"39462","name":"Filiberto B Bogisich","provider_visits":26}
{"provider_id":"12201","name":"Alene C Smitham","provider_visits":25}
{"provider_id":"5473","name":"Nakia A Jacobson","provider_visits":22}
{"provider_id":"17131","name":"Lysanne B Kris","provider_visits":26}
{"provider_id":"22331","name":"Anissa A Pfannerstill","provider_visits":18}
{"provider_id":"80481","name":"Jeramie C Reilly","provider_visits":15}
{"provider_id":"99979","name":"Austyn C Cassin","provider_visits":28}
{"provider_id":"93711","name":"Kailey A Larkin","provider_visits":26}
{"provider_id":"1570","name":"Maryse B Keeling","provider_visits":27}
{"provider_id":"3165","name":"Fabiola B Olson","provider_visits":27}
{"provider_id":"67679","name":"Leslie C Homenick","provider_visits":17}
{"provider_id":"68004","name":"Mortimer C Brown","provider_visits":26}
{"provider_id":"60417","name":"Bella A Kreiger","provider_visits":15}
{"provider_id":"31690","name":"Richard C Kling","provider_visits":30}
{"provider_id":"86108","name":"Yvonne C Haag","provider_visits":15}
{"provider_id":"23327","name":"Travis B Prosacco","provider_visits":23}
{"provider_id":"87737","name":"Jake A Hilll","provider_visits":21}
{"provider_id":"68822","name":"Kaylie B Gusikowski","provider_visits":19}
{"provider_id":"99084","name":"Justus C Wintheiser","provider_visits":19}
{"provider_id":"57954","name":"Camila B Bergstrom","provider_visits":17}
{"provider_id":"84269","name":"Kevin B Jast","provider_visits":19}
{"provider_id":"61171","name":"Jane B Fay","provider_visits":26}
{"provider_id":"46871","name":"Diamond C O'Reilly","provider_visits":30}
{"provider_id":"23613","name":"Myah C Weimann","provider_visits":17}
{"provider_id":"15965","name":"Janick B Altenwerth","provider_visits":20}
{"provider_id":"33504","name":"Thad A Nienow","provider_visits":24}
