{"provider_id":"99454","name":"Dell B Lehner","provider_visits":15}
{"provider_id":"30330","name":"Gaston A Durgan","provider_visits":23}
{"provider_id":"89345","name":"Meghan C Rippin","provider_visits":30}
{"provider_id":"64919","name":"Hilario A Cummings","provider_visits":17}
{"provider_id":"60893","name":"Karolann C Purdy","provider_visits":21}
{"provider_id":"13046","name":"Arvilla B Heller","provider_visits":15}
{"provider_id":"99873","name":"Izaiah C Lockman","provider_visits":25}
{"provider_id":"61785","name":"Tressa B Turner","provider_visits":15}
{"provider_id":"12355","name":"Brielle C Rodriguez","provider_visits":21}
{"provider_id":"8210","name":"Martin A Ryan","provider_visits":23}
{"provider_id":"96072","name":"Rhoda A Friesen","provider_visits":22}
{"provider_id":"15440","name":"Timmy C Willms","provider_visits":30}
{"provider_id":"95081","name":"Lucious B Blick","provider_visits":26}
{"provider_id":"94469","name":"Jordon C Harvey","provider_visits":17}
{"provider_id":"99641","name":"Alden A Hilll","provider_visits":19}
{"provider_id":"96313","name":"Oran A Crooks","provider_visits":15}
{"provider_id":"77967","name":"Kavon A Schulist","provider_visits":23}
{"provider_id":"65213","name":"Furman C Reilly","provider_visits":26}
{"provider_id":"13219","name":"Kay B Brown","provider_visits":17}
{"provider_id":"4336","name":"Calista B Herman","provider_visits":15}
{"provider_id":"15865","name":"Emiliano A Yundt","provider_visits":18}
{"provider_id":"14407","name":"Hershel C Pagac","provider_visits":20}
{"provider_id":"36980","name":"Alexzander A Koepp","provider_visits":16}
{"provider_id":"92864","name":"Coy C Graham","provider_visits":30}
{"provider_id":"52910","name":"Adriana B Reynolds","provider_visits":18}
{"provider_id":"68840","name":"Toby C Prohaska","provider_visits":29}
{"provider_id":"61142","name":"Vidal B Wilderman","provider_visits":29}
{"provider_id":"88173","name":"Lula A Kautzer","provider_visits":24}
{"provider_id":"57308","name":"Tabitha C Walsh","provider_visits":20}
{"provider_id":"70484","name":"Chelsie A Hansen","provider_visits":21}
{"provider_id":"53942","name":"Braden B White","provider_visits":21}
{"provider_id":"18763","name":"Maxie B Bogisich","provider_visits":30}
{"provider_id":"55504","name":"Catharine C Rolfson","provider_visits":42}
{"provider_id":"94997","name":"Delpha C Wiza","provider_visits":21}
{"provider_id":"81335","name":"Madyson C Labadie","provider_visits":17}
{"provider_id":"42099","name":"Lizzie C Reynolds","provider_visits":20}
{"provider_id":"57","name":"Elaina C Kuhn","provider_visits":24}
{"provider_id":"22345","name":"Percival B Lynch","provider_visits":22}
{"provider_id":"22342","name":"Elenora A McGlynn","provider_visits":29}
{"provider_id":"25341","name":"Marcelle C Hickle","provider_visits":21}
{"provider_id":"66820","name":"Nettie B MacGyver","provider_visits":20}
{"provider_id":"67322","name":"Wilbert B Mosciski","provider_visits":26}
{"provider_id":"10682","name":"Cynthia C Boyle","provider_visits":19}
{"provider_id":"89062","name":"Tanya B Klein","provider_visits":21}
{"provider_id":"86392","name":"Daphne A Hane","provider_visits":26}
{"provider_id":"77154","name":"Linda B Towne","provider_visits":18}
{"provider_id":"11577","name":"Keyon C Dooley","provider_visits":29}
{"provider_id":"5594","name":"Eulalia A Wehner","provider_visits":24}
{"provider_id":"84338","name":"Keshaun B Stehr","provider_visits":23}
{"provider_id":"94425","name":"Cicero A Kuhic","provider_visits":19}
{"provider_id":"84884","name":"Keon B Champlin","provider_visits":25}
{"provider_id":"95348","name":"Kendrick B Schmeler","provider_visits":23}
{"provider_id":"45558","name":"Antoinette A Wisoky","provider_visits":17}
{"provider_id":"82185","name":"Lilla B Padberg","provider_visits":21}
{"provider_id":"31822","name":"Elliott C Schneider","provider_visits":18}
{"provider_id":"47849","name":"Jayde A Dietrich","provider_visits":18}
{"provider_id":"9703","name":"Ike B Bins","provider_visits":16}
{"provider_id":"29211","name":"Vince C West","provider_visits":22}
{"provider_id":"93848","name":"Alexys C Larson","provider_visits":25}
{"provider_id":"94995","name":"Flo B Koelpin","provider_visits":16}
{"provider_id":"37992","name":"Dan C Witting","provider_visits":23}
{"provider_id":"47259","name":"Bessie B Kuphal","provider_visits":23}
{"provider_id":"43605","name":"Gwen B Kuhlman","provider_visits":25}
{"provider_id":"97720","name":"Foster C Kuhn","provider_visits":29}
{"provider_id":"8153","name":"Abby B Feest","provider_visits":25}
{"provider_id":"88772","name":"Kristofer B Hackett","provider_visits":30}
{"provider_id":"84223","name":"Niko A Shields","provider_visits":23}
{"provider_id":"36840","name":"Fritz C Hills","provider_visits":21}
{"provider_id":"59695","name":"Marcos C Buckridge","provider_visits":18}
{"provider_id":"40510","name":"Joanny B Glover","provider_visits":30}
{"provider_id":"5304","name":"Mercedes B Miller","provider_visits":30}
{"provider_id":"4344","name":"Bettie A Ullrich","provider_visits":24}
{"provider_id":"79404","name":"Kendra B Cole","provider_visits":26}
{"provider_id":"52837","name":"Dino B MacGyver","provider_visits":20}
{"provider_id":"99553","name":"Aletha C Okuneva","provider_visits":20}
{"provider_id":"18337","name":"Zane C Grant","provider_visits":28}
{"provider_id":"44334","name":"Maynard A Kozey","provider_visits":25}
{"provider_id":"9701","name":"Roslyn B Cartwright","provider_visits":16}
{"provider_id":"36912","name":"Erling A Cummerata","provider_visits":30}
{"provider_id":"18321","name":"Antonina B Hilpert","provider_visits":16}
{"provider_id":"99487","name":"Anne B Zboncak","provider_visits":39}
{"provider_id":"72538","name":"Flossie B Jacobson","provider_visits":18}
{"provider_id":"11431","name":"Ivah A Jacobi","provider_visits":15}
{"provider_id":"44747","name":"Luigi B Hermiston","provider_visits":21}
{"provider_id":"43230","name":"Clotilde C McKenzie","provider_visits":29}
{"provider_id":"74184","name":"Isai A O'Reilly","provider_visits":21}
{"provider_id":"25937","name":"Naomi A Schinner","provider_visits":29}
{"provider_id":"40272","name":"Cecelia B Watsica","provider_visits":28}
{"provider_id":"13816","name":"Frankie A Volkman","provider_visits":16}
{"provider_id":"73737","name":"Margot A Legros","provider_visits":30}
{"provider_id":"22200","name":"Sylvester A Friesen","provider_visits":16}
{"provider_id":"12800","name":"Nasir C Davis","provider_visits":19}
{"provider_id":"85231","name":"Pedro B Corkery","provider_visits":17}
{"provider_id":"37917","name":"Enrico A Beahan","provider_visits":20}
{"provider_id":"13593","name":"Marcella A Jones","provider_visits":24}
{"provider_id":"54593","name":"Melyna A Kerluke","provider_visits":21}
{"provider_id":"49578","name":"Mayra A Kub","provider_visits":26}
{"provider_id":"88240","name":"Ova C Moore","provider_visits":29}
{"provider_id":"97797","name":"Derrick B Runolfsdottir","provider_visits":17}
{"provider_id":"21504","name":"Breanna B Schuppe","provider_visits":24}
{"provider_id":"51152","name":"Baron B Weissnat","provider_visits":16}
{"provider_id":"77487","name":"Odie B Murphy","provider_visits":23}
{"provider_id":"27612","name":"Charley B Bauch","provider_visits":26}
{"provider_id":"28550","name":"Erica C Larkin","provider_visits":29}
{"provider_id":"16139","name":"Larue A Fritsch","provider_visits":16}
{"provider_id":"20416","name":"Xzavier A Emmerich","provider_visits":16}
{"provider_id":"9818","name":"Arthur C Collins","provider_visits":24}
{"provider_id":"53480","name":"Fletcher B Padberg","provider_visits":24}
{"provider_id":"70548","name":"Mayra C Gerlach","provider_visits":24}
{"provider_id":"83913","name":"Leila A Koelpin","provider_visits":20}
{"provider_id":"34977","name":"Bailee B Feest","provider_visits":23}
{"provider_id":"22746","name":"Jada A Hauck","provider_visits":24}
{"provider_id":"82994","name":"Leatha C Schaefer","provider_visits":25}
{"provider_id":"96433","name":"Javier A Lang","provider_visits":18}
{"provider_id":"11643","name":"Kayden C Kiehn","provider_visits":20}
{"provider_id":"10232","name":"Raymundo A Rutherford","provider_visits":23}
{"provider_id":"59232","name":"Malcolm B Heller","provider_visits":29}
{"provider_id":"88214","name":"Gilda C Kunde","provider_visits":26}
