{"provider_id":"80424","name":"Antwan C Raynor","provider_visits":29}
{"provider_id":"81832","name":"Jaida B Bradtke","provider_visits":29}
{"provider_id":"11024","name":"Nia A Hermiston","provider_visits":29}
{"provider_id":"91789","name":"Keon A Sawayn","provider_visits":19}
{"provider_id":"3198","name":"Carrie B Reichert","provider_visits":16}
{"provider_id":"99672","name":"Deshaun A Gutkowski","provider_visits":21}
{"provider_id":"87987","name":"Dakota C Murphy","provider_visits":20}
{"provider_id":"30281","name":"Florine C West","provider_visits":28}
{"provider_id":"59145","name":"Thaddeus A Weissnat","provider_visits":20}
{"provider_id":"56155","name":"Rickie C Roob","provider_visits":23}
{"provider_id":"90612","name":"Clotilde C Gorczany","provider_visits":26}
{"provider_id":"50676","name":"Kraig A Rippin","provider_visits":29}
{"provider_id":"7875","name":"Enoch C Schulist","provider_visits":19}
{"provider_id":"47830","name":"Olin B Gusikowski","provider_visits":20}
{"provider_id":"24869","name":"Chet B Breitenberg","provider_visits":16}
{"provider_id":"90978","name":"Eldred A Davis","provider_visits":28}
{"provider_id":"25306","name":"Taylor A Bartell","provider_visits":17}
{"provider_id":"43124","name":"Ansel A Hand","provider_visits":27}
{"provider_id":"36333","name":"Burley A Hodkiewicz","provider_visits":17}
{"provider_id":"16578","name":"Rasheed A Conroy","provider_visits":20}
{"provider_id":"65278","name":"Zelma A Turcotte","provider_visits":30}
{"provider_id":"34445","name":"Leonor C Funk","provider_visits":22}
{"provider_id":"20277","name":"Emery A Senger","provider_visits":17}
{"provider_id":"88765","name":"Ashly A Morissette","provider_visits":30}
{"provider_id":"9273","name":"Chance B Bogisich","provider_visits":20}
{"provider_id":"6032","name":"Leda C Treutel","provider_visits":26}
{"provider_id":"47198","name":"Jeff B Bode","provider_visits":22}
{"provider_id":"68370","name":"Winnifred C Bartoletti","provider_visits":26}
{"provider_id":"23674","name":"Ubaldo C Rolfson","provider_visits":28}
{"provider_id":"6710","name":"Deion A Morissette","provider_visits":23}
{"provider_id":"47489","name":"Evans A Heaney","provider_visits":25}
{"provider_id":"78333","name":"Denis C Ziemann","provider_visits":26}
{"provider_id":"27180","name":"Wyman A Heidenreich","provider_visits":17}
{"provider_id":"68981","name":"Floy C Hermann","provider_visits":15}
{"provider_id":"24143","name":"Katlynn A Pfeffer","provider_visits":16}
{"provider_id":"28342","name":"Robert C Hermiston","provider_visits":21}
{"provider_id":"67427","name":"Julien B Daugherty","provider_visits":26}
{"provider_id":"15301","name":"Leone A Yundt","provider_visits":20}
{"provider_id":"669","name":"Zoey A Weissnat","provider_visits":18}
{"provider_id":"92152","name":"Dean A Dibbert","provider_visits":16}
{"provider_id":"4573","name":"Tillman C Pagac","provider_visits":18}
{"provider_id":"40467","name":"Hermina A Nikolaus","provider_visits":19}
{"provider_id":"71564","name":"Daphney B Nienow","provider_visits":23}
{"provider_id":"86202","name":"Trudie C Powlowski","provider_visits":35}
{"provider_id":"18755","name":"Jakayla B Nader","provider_visits":15}
{"provider_id":"23018","name":"Javier A Collier","provider_visits":18}
{"provider_id":"8862","name":"Norwood C Towne","provider_visits":17}
{"provider_id":"28554","name":"Myrl A Fadel","provider_visits":19}
{"provider_id":"22019","name":"Allene B Bosco","provider_visits":27}
{"provider_id":"65255","name":"Elna A Glover","provider_visits":20}
{"provider_id":"3518","name":"Jayda B Reinger","provider_visits":23}
{"provider_id":"35416","name":"Hipolito A Kunde","provider_visits":26}
{"provider_id":"70233","name":"Armando C Jaskolski","provider_visits":18}
{"provider_id":"82536","name":"Sheldon C Marks","provider_visits":30}
{"provider_id":"1799","name":"Yvette C Dooley","provider_visits":23}
{"provider_id":"97040","name":"Ava A Bayer","provider_visits":19}
{"provider_id":"14498","name":"Ramona C Leannon","provider_visits":25}
{"provider_id":"37510","name":"Georgianna C Reynolds","provider_visits":15}
{"provider_id":"81969","name":"Jeremy B Mohr","provider_visits":18}
{"provider_id":"789","name":"Sunny A Toy","provider_visits":25}
{"provider_id":"1177","name":"Yazmin A Tremblay","provider_visits":24}
{"provider_id":"29546","name":"Dudley B Kilback","provider_visits":29}
{"provider_id":"67601","name":"Antonietta A Larson","provider_visits":30}
{"provider_id":"90305","name":"Davin A Stroman","provider_visits":30}
{"provider_id":"29984","name":"Rose C Bogan","provider_visits":23}
{"provider_id":"13270","name":"Macey C Dibbert","provider_visits":17}
{"provider_id":"25817","name":"Rickie B Kunde","provider_visits":33}
{"provider_id":"54612","name":"Abigail A Harris","provider_visits":21}
{"provider_id":"81128","name":"Lue A Weimann","provider_visits":24}
{"provider_id":"39276","name":"Sean B Heller","provider_visits":16}
{"provider_id":"33613","name":"Ludie B Macejkovic","provider_visits":25}
{"provider_id":"20049","name":"Harmony A Yost","provider_visits":23}
{"provider_id":"499","name":"Annamarie A Bechtelar","provider_visits":16}
{"provider_id":"60491","name":"Gunnar A Reichert","provider_visits":18}
{"provider_id":"7658","name":"Vernie B Krajcik","provider_visits":16}
{"provider_id":"33775","name":"Jessika C Emmerich","provider_visits":18}
{"provider_id":"2381","name":"Scot C Koelpin","provider_visits":29}
{"provider_id":"26946","name":"Betsy B Murazik","provider_visits":15}
{"provider_id":"38392","name":"Mckenna A Schaden","provider_visits":16}
{"provider_id":"42209","name":"Jarrod B Williamson","provider_visits":16}
{"provider_id":"29460","name":"Ryan B Keeling","provider_visits":23}
{"provider_id":"39347","name":"Ursula C Frami","provider_visits":19}
