{"provider_id":"38621","name":"Loyal A Mertz","provider_visits":26}
{"provider_id":"84720","name":"Moises B Roberts","provider_visits":27}
{"provider_id":"55131","name":"Kamren A Heidenreich","provider_visits":24}
{"provider_id":"62713","name":"Lolita A Wiza","provider_visits":19}
{"provider_id":"6145","name":"Aaliyah B Thiel","provider_visits":26}
{"provider_id":"1653","name":"Lucile C Fahey","provider_visits":22}
{"provider_id":"63630","name":"Tremayne B Feest","provider_visits":15}
{"provider_id":"55219","name":"Victoria A Zieme","provider_visits":18}
{"provider_id":"94952","name":"Jordan C Quigley","provider_visits":18}
{"provider_id":"15370","name":"Kieran A Moen","provider_visits":23}
{"provider_id":"88107","name":"Nelle A Ledner","provider_visits":17}
{"provider_id":"60696","name":"Uriel A Bartell","provider_visits":28}
{"provider_id":"93890","name":"Guadalupe C Armstrong","provider_visits":29}
{"provider_id":"12871","name":"Pearline C Hilpert","provider_visits":15}
{"provider_id":"55019","name":"Violette A Rowe","provider_visits":26}
{"provider_id":"23725","name":"Angus A Waelchi","provider_visits":26}
{"provider_id":"25636","name":"Barrett B Roob","provider_visits":25}
{"provider_id":"75558","name":"Gillian A Ratke","provider_visits":23}
{"provider_id":"29523","name":"Katarina B Quitzon","provider_visits":26}
{"provider_id":"8647","name":"Janis A Mohr","provider_visits":17}
{"provider_id":"76919","name":"Lolita C Grant","provider_visits":28}
{"provider_id":"66094","name":"Phyllis B Lebsack","provider_visits":28}
{"provider_id":"11522","name":"Chaz A Kulas","provider_visits":30}
{"provider_id":"31993","name":"Jonathon A McLaughlin","provider_visits":22}
{"provider_id":"40133","name":"Everett C Gerlach","provider_visits":19}
{"provider_id":"21271","name":"Asha A Stokes","provider_visits":19}
{"provider_id":"70948","name":"Edwina A Konopelski","provider_visits":24}
{"provider_id":"60537","name":"Rowena A Mertz","provider_visits":20}
{"provider_id":"23290","name":"Piper C Lindgren","provider_visits":20}
{"provider_id":"65068","name":"Alda B Kerluke","provider_visits":23}
{"provider_id":"5089","name":"Bradly C Smitham","provider_visits":24}
{"provider_id":"92591","name":"Gordon B Lubowitz","provider_visits":26}
{"provider_id":"8431","name":"Demario C Runolfsdottir","provider_visits":19}
{"provider_id":"25066","name":"Destiney A Blick","provider_visits":17}
{"provider_id":"95394","name":"Erika A Dickinson","provider_visits":15}
{"provider_id":"53701","name":"Pasquale C Kub","provider_visits":26}
{"provider_id":"97594","name":"Tess C Barrows","provider_visits":20}
{"provider_id":"4841","name":"Tod B Dietrich","provider_visits":23}
{"provider_id":"2634","name":"Kirstin B Shields","provider_visits":18}
{"provider_id":"66072","name":"Ubaldo B Will","provider_visits":26}
{"provider_id":"21228","name":"Alec B Hegmann","provider_visits":19}
{"provider_id":"41444","name":"Fabiola A Frami","provider_visits":28}
{"provider_id":"28936","name":"Celine B Daniel","provider_visits":25}
{"provider_id":"4417","name":"Herman B Koss","provider_visits":25}
{"provider_id":"7625","name":"Maurice A Fahey","provider_visits":22}
{"provider_id":"44096","name":"Dorothea C Morissette","provider_visits":18}
{"provider_id":"7189","name":"Corine A Brown","provider_visits":30}
{"provider_id":"31794","name":"Wyman A Conroy","provider_visits":26}
{"provider_id":"56860","name":"Fae B Rice","provider_visits":22}
{"provider_id":"87903","name":"Luisa A Zulauf","provider_visits":15}
{"provider_id":"6972","name":"Colin B Waelchi","provider_visits":21}
{"provider_id":"50210","name":"Christophe A Nienow","provider_visits":22}
{"provider_id":"16744","name":"Isabel B Wehner","provider_visits":26}
