{"provider_id":"75960","name":"Gunnar B Jakubowski","provider_visits":21}
{"provider_id":"16601","name":"Sydni B Shields","provider_visits":29}
{"provider_id":"59180","name":"Aaliyah C Labadie","provider_visits":30}
{"provider_id":"548","name":"Isac B Mosciski","provider_visits":19}
{"provider_id":"82338","name":"Gunnar A Jast","provider_visits":52}
{"provider_id":"3673","name":"Ryan B Bogan","provider_visits":18}
{"provider_id":"35963","name":"Mabel B Ebert","provider_visits":24}
{"provider_id":"69576","name":"Forest B Williamson","provider_visits":27}
{"provider_id":"19490","name":"Eulalia C Breitenberg","provider_visits":24}
{"provider_id":"82779","name":"Claudine A Ebert","provider_visits":23}
{"provider_id":"98268","name":"Laura C Dooley","provider_visits":20}
{"provider_id":"49052","name":"Humberto A Farrell","provider_visits":20}
{"provider_id":"13073","name":"Richard B Bednar","provider_visits":24}
{"provider_id":"68172","name":"Nickolas A Turner","provider_visits":29}
{"provider_id":"64998","name":"Conner B Hermann","provider_visits":21}
{"provider_id":"38230","name":"Arden A Gibson","provider_visits":18}
{"provider_id":"50400","name":"Marion C Bartell","provider_visits":22}
{"provider_id":"89943","name":"Javon A Batz","provider_visits":22}
{"provider_id":"68454","name":"Cecil B Lind","provider_visits":18}
{"provider_id":"97102","name":"Enos B Ledner","provider_visits":15}
{"provider_id":"37410","name":"Garry A Huel","provider_visits":23}
{"provider_id":"3018","name":"Amya C DuBuque","provider_visits":28}
{"provider_id":"17727","name":"Tatyana C Lynch","provider_visits":16}
{"provider_id":"96307","name":"Wilfred C Goodwin","provider_visits":25}
{"provider_id":"65399","name":"Melba C Gislason","provider_visits":30}
{"provider_id":"85504","name":"Alessia C Goyette","provider_visits":23}
{"provider_id":"52212","name":"Urban A Morissette","provider_visits":17}
{"provider_id":"80730","name":"Nickolas C Heidenreich","provider_visits":15}
{"provider_id":"7805","name":"Andy C Koss","provider_visits":24}
{"provider_id":"6947","name":"Stone B Ortiz","provider_visits":25}
{"provider_id":"509","name":"Ubaldo A Hand","provider_visits":30}
{"provider_id":"36884","name":"Valentin B Koepp","provider_visits":16}
{"provider_id":"73462","name":"Jazlyn B Runolfsson","provider_visits":16}
{"provider_id":"41161","name":"Bertrand A Nicolas","provider_visits":21}
{"provider_id":"32545","name":"Elvie A Gibson","provider_visits":26}
{"provider_id":"1740","name":"Micah A Kovacek","provider_visits":22}
{"provider_id":"91964","name":"Esmeralda A Nitzsche","provider_visits":17}
{"provider_id":"50511","name":"Jodie A Corkery","provider_visits":29}
{"provider_id":"64373","name":"Jaylan C Pouros","provider_visits":24}
{"provider_id":"95867","name":"Sebastian C Bashirian","provider_visits":22}
{"provider_id":"58911","name":"Rolando B Langworth","provider_visits":23}
{"provider_id":"7407","name":"Lane A Jerde","provider_visits":26}
{"provider_id":"204","name":"Jaiden C Bradtke","provider_visits":21}
{"provider_id":"50024","name":"Justine B Graham","provider_visits":18}
{"provider_id":"34068","name":"Ursula C D'Amore","provider_visits":16}
{"provider_id":"41847","name":"Keith C Lockman","provider_visits":26}
{"provider_id":"9243","name":"Reagan C Rau","provider_visits":19}
{"provider_id":"35515","name":"Hunter A Torp","provider_visits":22}
{"provider_id":"45355","name":"Princess B Greenholt","provider_visits":21}
{"provider_id":"86440","name":"Vallie C Bauch","provider_visits":45}
{"provider_id":"96118","name":"Darrin A West","provider_visits":25}
{"provider_id":"62070","name":"Waylon B Fisher","provider_visits":20}
{"provider_id":"43685","name":"Bartholome A Fritsch","provider_visits":19}
{"provider_id":"97994","name":"Garrick B MacGyver","provider_visits":23}
{"provider_id":"68627","name":"Lorenz A Emmerich","provider_visits":30}
